{
    "prepare_queue": {
        "installed": [],
        "uninstalled": []
    },
    "config_munge": {
        "files": {}
    },
    "installed_plugins": {
        "cordova-plugin-camera": {
            "PACKAGE_NAME": "com.tapper.discreti"
        },
        "cordova-plugin-console": {
            "PACKAGE_NAME": "com.tapper.discreti"
        },
        "cordova-plugin-contacts": {
            "PACKAGE_NAME": "com.tapper.discreti"
        },
        "cordova-plugin-device": {
            "PACKAGE_NAME": "com.tapper.discreti"
        },
        "cordova-plugin-fastrde-checkgps": {
            "PACKAGE_NAME": "com.tapper.discreti"
        },
        "cordova-plugin-file": {
            "PACKAGE_NAME": "com.tapper.discreti"
        },
        "cordova-plugin-file-transfer": {
            "PACKAGE_NAME": "com.tapper.discreti"
        },
        "cordova-plugin-geolocation": {
            "PACKAGE_NAME": "com.tapper.discreti"
        },
        "cordova-plugin-inapppurchase": {
            "PACKAGE_NAME": "com.tapper.discreti"
        },
        "cordova-plugin-keyboard": {
            "PACKAGE_NAME": "com.tapper.discreti"
        },
        "cordova-plugin-splashscreen": {
            "PACKAGE_NAME": "com.tapper.discreti"
        },
        "cordova-plugin-statusbar": {
            "PACKAGE_NAME": "com.tapper.discreti"
        },
        "cordova-plugin-whitelist": {
            "PACKAGE_NAME": "com.tapper.discreti"
        },
        "cordova.plugins.diagnostic": {
            "PACKAGE_NAME": "com.tapper.discreti"
        },
        "ionic-plugin-keyboard": {
            "PACKAGE_NAME": "com.tapper.discreti"
        },
        "onesignal-cordova-plugin": {
            "PACKAGE_NAME": "com.tapper.discreti"
        }
    },
    "dependent_plugins": {
        "cordova-plugin-compat": {
            "PACKAGE_NAME": "com.tapper.discreti"
        }
    }
}